/home/leonel/Escritorio/preguntados/api-preguntados/src/main/java/com/lalonso/preguntados/models/CategoriaModel.java
/home/leonel/Escritorio/preguntados/api-preguntados/src/main/java/com/lalonso/preguntados/services/PreguntadosService.java
/home/leonel/Escritorio/preguntados/api-preguntados/src/main/java/com/lalonso/preguntados/models/PreguntaModel.java
/home/leonel/Escritorio/preguntados/api-preguntados/src/main/java/com/lalonso/preguntados/dto/ValidacionRespuestaDTO.java
/home/leonel/Escritorio/preguntados/api-preguntados/src/main/java/com/lalonso/preguntados/controllers/PreguntaController.java
/home/leonel/Escritorio/preguntados/api-preguntados/src/main/java/com/lalonso/preguntados/config/SwaggerConfig.java
/home/leonel/Escritorio/preguntados/api-preguntados/src/main/java/com/lalonso/preguntados/models/Pregunta_RespuestaModel.java
/home/leonel/Escritorio/preguntados/api-preguntados/src/main/java/com/lalonso/preguntados/dto/RespuestaDTO.java
/home/leonel/Escritorio/preguntados/api-preguntados/src/main/java/com/lalonso/preguntados/models/RespuestaModel.java
/home/leonel/Escritorio/preguntados/api-preguntados/src/main/java/com/lalonso/preguntados/PreguntadosApplication.java
/home/leonel/Escritorio/preguntados/api-preguntados/src/main/java/com/lalonso/preguntados/repositories/PreguntaRepository.java
/home/leonel/Escritorio/preguntados/api-preguntados/src/main/java/com/lalonso/preguntados/services/PreguntaService.java
/home/leonel/Escritorio/preguntados/api-preguntados/src/main/java/com/lalonso/preguntados/services/CategoriaService.java
/home/leonel/Escritorio/preguntados/api-preguntados/src/main/java/com/lalonso/preguntados/controllers/CategoriaController.java
/home/leonel/Escritorio/preguntados/api-preguntados/src/main/java/com/lalonso/preguntados/controllers/PreguntadosController.java
/home/leonel/Escritorio/preguntados/api-preguntados/src/main/java/com/lalonso/preguntados/models/RespuestaAVerificarModel.java
/home/leonel/Escritorio/preguntados/api-preguntados/src/main/java/com/lalonso/preguntados/dto/PreguntaDTO.java
/home/leonel/Escritorio/preguntados/api-preguntados/src/main/java/com/lalonso/preguntados/repositories/RespuestaRepository.java
/home/leonel/Escritorio/preguntados/api-preguntados/src/main/java/com/lalonso/preguntados/dto/CategoriaDTO.java
/home/leonel/Escritorio/preguntados/api-preguntados/src/main/java/com/lalonso/preguntados/repositories/CategoriaRepository.java
/home/leonel/Escritorio/preguntados/api-preguntados/src/main/java/com/lalonso/preguntados/dto/Pregunta_RespuestaDTO.java
/home/leonel/Escritorio/preguntados/api-preguntados/src/main/java/com/lalonso/preguntados/repositories/PreguntadosRepository.java
